{
    "graphName": "contact",
    "vertexFiles": [
        {
            "type": "vertex",
            "includHeader": true,
            "contentFileName": "example/data/biconnected/ex1/vertex.csv",
            "delimiter": ",",
            "primaryKey": "ID",
            "propertyClassMap": {
                "ID": "String"
            },
            "propertySourceMap": {
                "ID": "vertex.csv"
            },
            "sortPropertyMap": {},
            "versionPropertySet":[]
        }
    ],
    "edgeFiles": [
        {
            "type": "edge",
            "includHeader": true,
            "contentFileName": "example/data/biconnected/ex1/edge.csv",
            "delimiter": ",",
            "primaryKey": "ID",
            "vertexTypeFrom": "vertex",
            "vertexJoinPropertyFrom": "ID",
            "edgeJoinPropertyFrom": "FROM",
            "vertexTypeTo": "vertex",
            "vertexJoinPropertyTo": "ID",
            "edgeJoinPropertyTo": "TO",
            "directed": false,
            "propertyClassMap": {
                "ID": "String",
                "FROM": "String",
                "TO": "String"
            },
            "propertySourceMap": {
                "ID": "edge.csv",
                "FROM": "edge.csv",
                "TO": "edge.csv"
            },
            "sortPropertyMap": {},
            "versionPropertySet":[]
        }
    ]
}